[gd_scene load_steps=2 format=2]

[ext_resource path="res://gator.gd" type="Script" id=1]

[node name="root_gator" type="Node2D"]
script = ExtResource( 1 )

[node name="sprite" type="Sprite" parent="."]
scale = Vector2( 0.5, 0.5 )
centered = false

[node name="drag" type="Button" parent="."]
margin_right = 248.0
margin_bottom = 153.0
flat = true

[node name="lifespan" type="LineEdit" parent="."]
margin_left = 130.426
margin_top = 106.0
margin_right = 188.426
margin_bottom = 130.0
rect_scale = Vector2( 2, 2 )
text = "0"

[connection signal="button_down" from="drag" to="." method="_on_drag_button_down"]
[connection signal="button_up" from="drag" to="." method="_on_drag_button_up"]
[connection signal="text_entered" from="lifespan" to="." method="_on_lifespan_text_entered"]
